{
  "db": {
    "name": "db",
    "connector": "memory"
  },
  "postgresIDs": {
    "host": "localhost",
    "port": 5432,
    "database": "salestracker",
    "username": "postgres",
    "password": "1KZx8dv75F4t",
    "name": "postgresIDs",
    "connector": "postgresql"
  }
}
